5.2 Data prepration | Data Analysis
…
Code

dn = d %>% 
  filter(status == 'avail') %>%
  group_by(network) %>% 
  summarise(lev2 = sum(lev2), 
            lev3 = sum(lev3)) %>%
  mutate(tot = lev2 + lev3)

dn %>% arrange(desc(lev2))
dn %>% arrange(desc(lev3))
dn %>% arrange(desc(tot ))

# A tibble: 43 × 4
   network             lev2  lev3   tot
   <chr>              <dbl> <dbl> <dbl>
 1 ChargePoint        58662  2168 60830
 2 Non-Networked      23879  1479 25358
 3 Tesla              14931 21812 36743
 4 Blink              11075    88 11163
 5 FLO                 6180   453  6633
 6 EV Connect          3863   487  4350
 7 Circuit électrique  3631   839  4470
 8 Volta               2922   104  3026
 9 AMPUP               2879     5  2884
10 POWERFLEX           2473    28  2501
# ℹ 33 more rows
# A tibble: 43 × 4
   network             lev2  lev3   tot
   <chr>              <dbl> <dbl> <dbl>
 1 Tesla              14931 21812 36743
 2 Electrify America    166  3542  3708
 3 eVgo                 362  2618  2980
 4 ChargePoint        58662  2168 60830
 5 Non-Networked      23879  1479 25358
 6 Circuit électrique  3631   839  4470
 7 SHELL_RECHARGE      1979   576  2555
 8 FCN                  120   546   666
 9 EV Connect          3863   487  4350
10 FLO                 6180   453  6633
# ℹ 33 more rows
# A tibble: 43 × 4
   network             lev2  lev3   tot
   <chr>              <dbl> <dbl> <dbl>
 1 ChargePoint        58662  2168 60830
 2 Tesla              14931 21812 36743
 3 Non-Networked      23879  1479 25358
 4 Blink              11075    88 11163
 5 FLO                 6180   453  6633
 6 Circuit électrique  3631   839  4470
 7 EV Connect          3863   487  4350
 8 Electrify America    166  3542  3708
 9 Volta               2922   104  3026
10 eVgo                 362  2618  2980
# ℹ 33 more rows
…
